module dmd.tanna.dev

go 1.21

require (
	github.com/CycloneDX/cyclonedx-go v0.7.2
	github.com/carlmjohnson/versioninfo v0.22.5
	github.com/deepmap/oapi-codegen v1.14.0
	github.com/hashicorp/go-retryablehttp v0.7.4
	github.com/iancoleman/strcase v0.3.0
	github.com/jamietanna/log v0.2.2-0.20230920083807-7382cd7fbdd8
	github.com/jedib0t/go-pretty/v6 v6.4.7
	github.com/mitchellh/go-wordwrap v1.0.1
	github.com/oapi-codegen/runtime v1.0.0
	github.com/package-url/packageurl-go v0.1.1
	github.com/spdx/tools-golang v0.5.3
	github.com/spf13/cobra v1.7.0
	github.com/sqlc-dev/sqlc v1.21.1-0.20230914185630-b3c34742f68c
	github.com/stretchr/testify v1.8.4
	github.com/xanzy/go-gitlab v0.90.0
	gitlab.com/tanna.dev/endoflife-checker v0.7.0
	golang.org/x/crypto v0.14.0
	golang.org/x/sync v0.3.0
	golang.org/x/text v0.13.0
	modernc.org/sqlite v1.25.0
)

require (
	github.com/anchore/go-struct-converter v0.0.0-20221118182256-c68fdcfa2092 // indirect
	github.com/antlr/antlr4/runtime/Go/antlr/v4 v4.0.0-20230321174746-8dcc6526cfb1 // indirect
	github.com/apapsch/go-jsonmerge/v2 v2.0.0 // indirect
	github.com/aws/aws-sdk-go-v2/service/lambda v1.37.0 // indirect
	github.com/aws/smithy-go v1.13.5 // indirect
	github.com/aymanbagabas/go-osc52/v2 v2.0.1 // indirect
	github.com/benbjohnson/clock v1.3.5 // indirect
	github.com/bytecodealliance/wasmtime-go/v12 v12.0.0 // indirect
	github.com/charmbracelet/lipgloss v0.8.0 // indirect
	github.com/cpuguy83/go-md2man/v2 v2.0.2 // indirect
	github.com/cubicdaiya/gonp v1.0.4 // indirect
	github.com/cznic/mathutil v0.0.0-20181122101859-297441e03548 // indirect
	github.com/davecgh/go-spew v1.1.1 // indirect
	github.com/dustin/go-humanize v1.0.1 // indirect
	github.com/fatih/structtag v1.2.0 // indirect
	github.com/getkin/kin-openapi v0.118.0 // indirect
	github.com/go-logfmt/logfmt v0.6.0 // indirect
	github.com/go-openapi/jsonpointer v0.20.0 // indirect
	github.com/go-openapi/swag v0.22.4 // indirect
	github.com/go-sql-driver/mysql v1.7.1 // indirect
	github.com/golang/protobuf v1.5.3 // indirect
	github.com/google/cel-go v0.18.0 // indirect
	github.com/google/go-querystring v1.1.0 // indirect
	github.com/google/uuid v1.3.1 // indirect
	github.com/hashicorp/go-cleanhttp v0.5.2 // indirect
	github.com/inconshreveable/mousetrap v1.1.0 // indirect
	github.com/invopop/yaml v0.2.0 // indirect
	github.com/jackc/pgpassfile v1.0.0 // indirect
	github.com/jackc/pgservicefile v0.0.0-20221227161230-091c0ba34f0a // indirect
	github.com/jackc/pgx/v5 v5.4.3 // indirect
	github.com/jinzhu/inflection v1.0.0 // indirect
	github.com/josharian/intern v1.0.0 // indirect
	github.com/kballard/go-shellquote v0.0.0-20180428030007-95032a82bc51 // indirect
	github.com/lucasb-eyer/go-colorful v1.2.0 // indirect
	github.com/mailru/easyjson v0.7.7 // indirect
	github.com/mattn/go-isatty v0.0.19 // indirect
	github.com/mattn/go-runewidth v0.0.15 // indirect
	github.com/mattn/go-sqlite3 v1.14.17 // indirect
	github.com/mohae/deepcopy v0.0.0-20170929034955-c48cc78d4826 // indirect
	github.com/muesli/reflow v0.3.0 // indirect
	github.com/muesli/termenv v0.15.2 // indirect
	github.com/perimeterx/marshmallow v1.1.5 // indirect
	github.com/pganalyze/pg_query_go/v4 v4.2.3 // indirect
	github.com/pingcap/errors v0.11.5-0.20210425183316-da1aaba5fb63 // indirect
	github.com/pingcap/failpoint v0.0.0-20220801062533-2eaa32854a6c // indirect
	github.com/pingcap/log v1.1.0 // indirect
	github.com/pingcap/tidb/parser v0.0.0-20230815160630-b69fa21942d1 // indirect
	github.com/pmezard/go-difflib v1.0.0 // indirect
	github.com/remyoudompheng/bigfft v0.0.0-20230129092748-24d4a6f8daec // indirect
	github.com/rivo/uniseg v0.4.4 // indirect
	github.com/riza-io/grpc-go v0.2.0 // indirect
	github.com/rogpeppe/go-internal v1.11.0 // indirect
	github.com/russross/blackfriday/v2 v2.1.0 // indirect
	github.com/spf13/pflag v1.0.5 // indirect
	github.com/stoewer/go-strcase v1.2.0 // indirect
	go.uber.org/atomic v1.11.0 // indirect
	go.uber.org/multierr v1.11.0 // indirect
	go.uber.org/zap v1.25.0 // indirect
	golang.org/x/exp v0.0.0-20230724220655-d98519c11495 // indirect
	golang.org/x/mod v0.12.0 // indirect
	golang.org/x/net v0.17.0 // indirect
	golang.org/x/oauth2 v0.7.0 // indirect
	golang.org/x/sys v0.13.0 // indirect
	golang.org/x/time v0.3.0 // indirect
	golang.org/x/tools v0.12.0 // indirect
	google.golang.org/appengine v1.6.7 // indirect
	google.golang.org/genproto/googleapis/api v0.0.0-20230803162519-f966b187b2e5 // indirect
	google.golang.org/genproto/googleapis/rpc v0.0.0-20230803162519-f966b187b2e5 // indirect
	google.golang.org/grpc v1.57.0 // indirect
	google.golang.org/protobuf v1.31.0 // indirect
	gopkg.in/natefinch/lumberjack.v2 v2.2.1 // indirect
	gopkg.in/yaml.v2 v2.4.0 // indirect
	gopkg.in/yaml.v3 v3.0.1 // indirect
	lukechampine.com/uint128 v1.2.0 // indirect
	modernc.org/cc/v3 v3.40.0 // indirect
	modernc.org/ccgo/v3 v3.16.13 // indirect
	modernc.org/libc v1.24.1 // indirect
	modernc.org/mathutil v1.5.0 // indirect
	modernc.org/memory v1.6.0 // indirect
	modernc.org/opt v0.1.3 // indirect
	modernc.org/strutil v1.1.3 // indirect
	modernc.org/token v1.0.1 // indirect
)
